<svg width="11" height="7" viewBox="0 0 11 7" fill="currentColor" xmlns="http://www.w3.org/2000/svg">
    <path fill-rule="evenodd" clip-rule="evenodd"
          d="M5.97755 0.61004L10.8024 5.41842C11.0659 5.69836 11.0659 6.12651 10.8024 6.38998C10.5389 6.65345 10.0943 6.65345 9.83084 6.38998L5.5 2.05914L1.16916 6.38998C0.889222 6.65345 0.461078 6.65345 0.197605 6.38998C-0.0658683 6.12651 -0.0658683 5.69836 0.197605 5.41842L5.00599 0.61004C5.28593 0.346567 5.71407 0.346567 5.97755 0.61004Z"
          fill="#currentColor"/>
</svg>
